%YAML 1.1
%TAG !u! tag:unity3d.com,2011:
--- !u!114 &11400000
MonoBehaviour:
  m_ObjectHideFlags: 0
  m_CorrespondingSourceObject: {fileID: 0}
  m_PrefabInternal: {fileID: 0}
  m_GameObject: {fileID: 0}
  m_Enabled: 1
  m_EditorHideFlags: 0
  m_Script: {fileID: 11500000, guid: 53ac32fab2599402fb6d154adf4c1e40, type: 3}
  m_Name: DyatlovSessionConfig
  m_EditorClassIdentifier: 
  MatchCameraFramerate: 1
  PlaneFindingMode: 1
  EnableLightEstimation: 1
  EnableCloudAnchor: 0
  AugmentedImageDatabase: {fileID: 11400000, guid: 88763700380fd2740a181e5f8d68727f,
    type: 2}
  CameraFocusMode: 0
