%YAML 1.1
%TAG !u! tag:unity3d.com,2011:
--- !u!74 &7400000
AnimationClip:
  m_ObjectHideFlags: 0
  m_CorrespondingSourceObject: {fileID: 0}
  m_PrefabInternal: {fileID: 0}
  m_Name: OG_Anim
  serializedVersion: 6
  m_Legacy: 0
  m_Compressed: 0
  m_UseHighQualityCurve: 1
  m_RotationCurves: []
  m_CompressedRotationCurves: []
  m_EulerCurves: []
  m_PositionCurves: []
  m_ScaleCurves: []
  m_FloatCurves: []
  m_PPtrCurves:
  - curve:
    - time: 0
      value: {fileID: 21300000, guid: f26e4ad865ad041e29624255eee94542, type: 3}
    - time: 0.083333336
      value: {fileID: 21300000, guid: 687549a0cc23a4c64bb2b48a084e41ef, type: 3}
    - time: 0.16666667
      value: {fileID: 21300000, guid: c7cf2663dfa2a4e748c84da7fbe1f1a7, type: 3}
    - time: 0.25
      value: {fileID: 21300000, guid: 4e45710a3f8714db59dd04a9427366ce, type: 3}
    - time: 0.33333334
      value: {fileID: 21300000, guid: 79f0d1f0990214b909c871c456e2a35f, type: 3}
    - time: 0.41666666
      value: {fileID: 21300000, guid: 59fd6fdb1adaf43d49ae7cfaca96a848, type: 3}
    - time: 0.5
      value: {fileID: 21300000, guid: 867251c3e568a4931a05a321db78260d, type: 3}
    - time: 0.5833333
      value: {fileID: 21300000, guid: 82f1111eaa5554331be176e07b4fd7f3, type: 3}
    - time: 0.6666667
      value: {fileID: 21300000, guid: ad900ce5432a34ba3a4dc9c890dc4f08, type: 3}
    - time: 0.75
      value: {fileID: 21300000, guid: 43662311cb1fe42659cc2b0e083f17e4, type: 3}
    - time: 0.8333333
      value: {fileID: 21300000, guid: 5e46d883137564913a8a93870a3891d1, type: 3}
    - time: 0.9166667
      value: {fileID: 21300000, guid: 13c7f30008d6e4b8aaf4b8c6a99fbf7a, type: 3}
    - time: 1
      value: {fileID: 21300000, guid: b6408d3b1d8ea4f4db519d367dd0477f, type: 3}
    - time: 1.0833334
      value: {fileID: 21300000, guid: 04e322cfc86074083a48234ac3042356, type: 3}
    - time: 1.1666666
      value: {fileID: 21300000, guid: 93df8a15442714e0db42447cd7bcc64e, type: 3}
    - time: 1.25
      value: {fileID: 21300000, guid: 9631b3c5dd7da4db19fed03581a6a736, type: 3}
    - time: 1.3333334
      value: {fileID: 21300000, guid: da6830a05db534360b0245e81d344e78, type: 3}
    - time: 1.4166666
      value: {fileID: 21300000, guid: 4b3839222b4764c04a62aa790d9d709b, type: 3}
    - time: 1.5
      value: {fileID: 21300000, guid: d55146cf02b1a445fb49ed7740b75bce, type: 3}
    - time: 1.5833334
      value: {fileID: 21300000, guid: ef4e68b7a79e94f61b933ed6babc5c9b, type: 3}
    - time: 1.6666666
      value: {fileID: 21300000, guid: 34b652761ae934e4fb7e304aabaaa393, type: 3}
    - time: 1.75
      value: {fileID: 21300000, guid: 11bd68d61138b45069628a087bc235e0, type: 3}
    - time: 1.8333334
      value: {fileID: 21300000, guid: d8063728eb1364ce6a7935a579c9f067, type: 3}
    - time: 1.9166666
      value: {fileID: 21300000, guid: b4db8d650067d444096b4215fa202986, type: 3}
    - time: 2
      value: {fileID: 21300000, guid: ce7ce80c0a3fc43099fa426f910fd8e2, type: 3}
    - time: 2.0833333
      value: {fileID: 21300000, guid: 66effb2b510a04af291348099f755b38, type: 3}
    - time: 2.1666667
      value: {fileID: 21300000, guid: 072af4c20657e409285c1d4d481cfbd1, type: 3}
    - time: 2.25
      value: {fileID: 21300000, guid: 2b435d2f730a5434f892492d537abaf5, type: 3}
    - time: 2.3333333
      value: {fileID: 21300000, guid: 7cfd34c752aae42e8bfc6264c99c9ea1, type: 3}
    - time: 2.4166667
      value: {fileID: 21300000, guid: c92a1c0b684d342d5b540007a0daadc7, type: 3}
    - time: 2.5
      value: {fileID: 21300000, guid: 72d7df999f8f441d9b4c14a93c7b60f0, type: 3}
    - time: 2.5833333
      value: {fileID: 21300000, guid: 65a664058a1c34f4493a282bee393eff, type: 3}
    - time: 2.6666667
      value: {fileID: 21300000, guid: ac39f2ee2ef434f9d9fe7ac8fa504036, type: 3}
    - time: 2.75
      value: {fileID: 21300000, guid: 15754e452b01d4d209a385a73e11476e, type: 3}
    - time: 2.8333333
      value: {fileID: 21300000, guid: 48c4b53bc9ee34ff0aff2bbeaa5c6cf5, type: 3}
    - time: 2.9166667
      value: {fileID: 21300000, guid: 1220237742f4448889b3cd6d2d4e1ce0, type: 3}
    - time: 3
      value: {fileID: 21300000, guid: 288582b02403a42569b676589527ffaf, type: 3}
    - time: 3.0833333
      value: {fileID: 21300000, guid: ceb6532b1ef054979839a3cc1ac6045b, type: 3}
    - time: 3.1666667
      value: {fileID: 21300000, guid: beb3a22c1d9874ded9a36a894355a2d2, type: 3}
    - time: 3.25
      value: {fileID: 21300000, guid: d180f06101d2147c0a1f0331dce4a684, type: 3}
    - time: 3.3333333
      value: {fileID: 21300000, guid: 4d42a92fa8e16441f9883ce08332f94c, type: 3}
    - time: 3.4166667
      value: {fileID: 21300000, guid: c64a215fab4504fefb5cce8e420d5dc7, type: 3}
    - time: 3.5
      value: {fileID: 21300000, guid: 950e4fa790784460184c0760e638e9a4, type: 3}
    - time: 3.5833333
      value: {fileID: 21300000, guid: 9e1f511ffdf1a4348b7cf28a69347ade, type: 3}
    - time: 3.6666667
      value: {fileID: 21300000, guid: 22da1da55d0fb4798bee584d3553bce6, type: 3}
    - time: 3.75
      value: {fileID: 21300000, guid: a4772a370cd294e94a0414805971669e, type: 3}
    - time: 3.8333333
      value: {fileID: 21300000, guid: 05cccc75e9086461f944790116230b9c, type: 3}
    - time: 3.9166667
      value: {fileID: 21300000, guid: 03e917b827c7044f68bc3f6c7b964b48, type: 3}
    - time: 4
      value: {fileID: 21300000, guid: fd2909b2c8a6b45159c8628a9119d8cb, type: 3}
    - time: 4.0833335
      value: {fileID: 21300000, guid: 45811f272c5f341b99e9306c7eb0aefc, type: 3}
    - time: 4.1666665
      value: {fileID: 21300000, guid: 6218f1e549a554c76bee2ab52c1f8b56, type: 3}
    - time: 4.25
      value: {fileID: 21300000, guid: 6b504d311c1724cbea18299cf5d3d63e, type: 3}
    - time: 4.3333335
      value: {fileID: 21300000, guid: 53f6a69e27c904be1860e5b71889f893, type: 3}
    - time: 4.4166665
      value: {fileID: 21300000, guid: 131dd3df342214f1eab1d3e6af27990c, type: 3}
    - time: 4.5
      value: {fileID: 21300000, guid: 555cea4958a664764802619b63e7d0e5, type: 3}
    - time: 4.5833335
      value: {fileID: 21300000, guid: 54c67b08cccf0461da9d542c963e9423, type: 3}
    - time: 4.6666665
      value: {fileID: 21300000, guid: ddc369e783ba44d7599697864d90d088, type: 3}
    - time: 4.75
      value: {fileID: 21300000, guid: 7118a1349321d46bdb3b187c322c38bc, type: 3}
    - time: 4.8333335
      value: {fileID: 21300000, guid: aed1be1c190f549c3bc03789181b4031, type: 3}
    - time: 4.9166665
      value: {fileID: 21300000, guid: 6848ebbd3f4d04062a228392bd7bd855, type: 3}
    - time: 5
      value: {fileID: 21300000, guid: 5fdd5f997ca994ea591bfef4a40c72aa, type: 3}
    - time: 5.0833335
      value: {fileID: 21300000, guid: a5ee74e19a93846e6ae4870960c49c1d, type: 3}
    - time: 5.1666665
      value: {fileID: 21300000, guid: 128348c41010942b68f874029ded0595, type: 3}
    - time: 5.25
      value: {fileID: 21300000, guid: 4b3545a629a9a44c682b469345259ebd, type: 3}
    - time: 5.3333335
      value: {fileID: 21300000, guid: eb91fe10533244d14b95c6091608d270, type: 3}
    - time: 5.4166665
      value: {fileID: 21300000, guid: d18d5deb88eda496e908cda8aeec822b, type: 3}
    - time: 5.5
      value: {fileID: 21300000, guid: a48f90c9749934c6d86ed43559eb996c, type: 3}
    - time: 5.5833335
      value: {fileID: 21300000, guid: c2030d82bc5fc498da18da6bc0cc2231, type: 3}
    - time: 5.6666665
      value: {fileID: 21300000, guid: e921ee523f60d4618bd90a7bb1efadb4, type: 3}
    - time: 5.75
      value: {fileID: 21300000, guid: 569ff3968394348f397d366d04db7ec3, type: 3}
    - time: 5.8333335
      value: {fileID: 21300000, guid: 95dbc70fc970e47459156051cc6f027b, type: 3}
    - time: 5.9166665
      value: {fileID: 21300000, guid: 2f3024ab999864446b162ff5c838711e, type: 3}
    - time: 6
      value: {fileID: 21300000, guid: 267505d1bdf2948e092ce0cd58be3866, type: 3}
    - time: 6.0833335
      value: {fileID: 21300000, guid: f7ff1d79bcbed4e27b8ecad1ea43925e, type: 3}
    - time: 6.1666665
      value: {fileID: 21300000, guid: 8d8920039848f4f81945e60313edaaae, type: 3}
    - time: 6.25
      value: {fileID: 21300000, guid: 97161e4feddbf481aa2b2e578f35fd0d, type: 3}
    - time: 6.3333335
      value: {fileID: 21300000, guid: c2d156b54963741f49313a79346d8eca, type: 3}
    - time: 6.4166665
      value: {fileID: 21300000, guid: 3642b6cbb61ae4679ad0d7801e984a0a, type: 3}
    - time: 6.5
      value: {fileID: 21300000, guid: b31dba0c91fe64275ba93b924d916ec8, type: 3}
    - time: 6.5833335
      value: {fileID: 21300000, guid: 93f5adaf5a4704011b2651a68d622a1c, type: 3}
    - time: 6.6666665
      value: {fileID: 21300000, guid: 7c05186a82a1345c18e7af4489435800, type: 3}
    - time: 6.75
      value: {fileID: 21300000, guid: eb98832f92d5b47549bc48c9e002efed, type: 3}
    - time: 6.8333335
      value: {fileID: 21300000, guid: 9063fb22305c34ea09417856a2ab408a, type: 3}
    - time: 6.9166665
      value: {fileID: 21300000, guid: 4eda98ad5d9b341a5807cbb15eb000d8, type: 3}
    - time: 7
      value: {fileID: 21300000, guid: 2f5145e62f53e45dab6a3099a0bf2491, type: 3}
    - time: 7.0833335
      value: {fileID: 21300000, guid: 473853bba560e41c48956d593d050006, type: 3}
    - time: 7.1666665
      value: {fileID: 21300000, guid: 0b24b158fbc2f4d51b092abe1bb35160, type: 3}
    - time: 7.25
      value: {fileID: 21300000, guid: 7e9e968f3f5424b629d45bb245d5d5c3, type: 3}
    - time: 7.3333335
      value: {fileID: 21300000, guid: afce881084a05471ab06b8e88c17f10d, type: 3}
    - time: 7.4166665
      value: {fileID: 21300000, guid: 1f5f536403bb34d3a8d33b00730c9128, type: 3}
    - time: 7.5
      value: {fileID: 21300000, guid: c543f4bb213c5458ea4fb49b702cf723, type: 3}
    - time: 7.5833335
      value: {fileID: 21300000, guid: a3ad1745ea6d046c58bc323bbaa40fd8, type: 3}
    - time: 7.6666665
      value: {fileID: 21300000, guid: a6a967a72ac07436986b7469a52781a6, type: 3}
    - time: 7.75
      value: {fileID: 21300000, guid: 5bef07d29729f45a8944150cfd20b995, type: 3}
    - time: 7.8333335
      value: {fileID: 21300000, guid: c57dee16bb9dd468fb3b2b194f25fe50, type: 3}
    - time: 7.9166665
      value: {fileID: 21300000, guid: 9578645eddc8042a7a19f28cd6e1c4ae, type: 3}
    - time: 8
      value: {fileID: 21300000, guid: a42c2f7d521b44601a83d1a848f8258e, type: 3}
    - time: 8.083333
      value: {fileID: 21300000, guid: ec7ccb945948f4047b90ad0a11195ea0, type: 3}
    - time: 8.166667
      value: {fileID: 21300000, guid: a8a7ca026fd384680bfc30e8f4f175d3, type: 3}
    - time: 8.25
      value: {fileID: 21300000, guid: 135b6da97b6e44e16bc50726dee49588, type: 3}
    - time: 8.333333
      value: {fileID: 21300000, guid: 018d1978c4bf6481a8d54e8116c2e491, type: 3}
    - time: 8.416667
      value: {fileID: 21300000, guid: a6aaa29705e7a4305a5d0b225005c46d, type: 3}
    - time: 8.5
      value: {fileID: 21300000, guid: c270c27af09dc4249ad0d3f0ea262f0b, type: 3}
    - time: 8.583333
      value: {fileID: 21300000, guid: d278e2cac16014ddd9822f290951cad4, type: 3}
    - time: 8.666667
      value: {fileID: 21300000, guid: 56d6525522eea4c9fb4489456a4a92dc, type: 3}
    - time: 8.75
      value: {fileID: 21300000, guid: 3b5171599eb824ffca2ca88549e1d6ca, type: 3}
    - time: 8.833333
      value: {fileID: 21300000, guid: 554d8f974d01d4248adb3edb876d4a6b, type: 3}
    - time: 8.916667
      value: {fileID: 21300000, guid: ac19d42a93bbe4f24867052611b8bddb, type: 3}
    - time: 9
      value: {fileID: 21300000, guid: 6a0e143bb4948491b83904aa311d1d74, type: 3}
    - time: 9.083333
      value: {fileID: 21300000, guid: 07a477e009029408ea4187afddb7ae62, type: 3}
    - time: 9.166667
      value: {fileID: 21300000, guid: 60d0719921e784a7b907382024a32bb3, type: 3}
    - time: 9.25
      value: {fileID: 21300000, guid: cb9ff1e3e901e49e3aa1bd9474bfa6d3, type: 3}
    - time: 9.333333
      value: {fileID: 21300000, guid: 0c3379919acf34ccda26a686afeaa9b4, type: 3}
    - time: 9.416667
      value: {fileID: 21300000, guid: 46dc1c9fd516b440aaa179820ee3b003, type: 3}
    - time: 9.5
      value: {fileID: 21300000, guid: 6d5ebf273284642679b511fe87b69107, type: 3}
    - time: 9.583333
      value: {fileID: 21300000, guid: 351bc06e56e554e72b1d074c5980627e, type: 3}
    - time: 9.666667
      value: {fileID: 21300000, guid: c12b8df7f4f0f4f75ab9f86c4bb47072, type: 3}
    - time: 9.75
      value: {fileID: 21300000, guid: ce1bba6aff6ff47c1af360791d939fd2, type: 3}
    - time: 9.833333
      value: {fileID: 21300000, guid: 9695f9ea6efca4f0b89ecaf22612315f, type: 3}
    - time: 9.916667
      value: {fileID: 21300000, guid: 5a50b81399836415ba5dbc27c4350743, type: 3}
    - time: 10
      value: {fileID: 21300000, guid: 32009355ceb044128b64450245f1652a, type: 3}
    - time: 10.083333
      value: {fileID: 21300000, guid: 162c708d39f46455c9421d287fb63526, type: 3}
    - time: 10.166667
      value: {fileID: 21300000, guid: 4d96b59f5f04e43288f7987b003c3593, type: 3}
    - time: 10.25
      value: {fileID: 21300000, guid: c763610d729d347acb5dfa5cfc2e83ab, type: 3}
    - time: 10.333333
      value: {fileID: 21300000, guid: 0609818ea07e247ddaf8e8042c2db0ed, type: 3}
    - time: 10.416667
      value: {fileID: 21300000, guid: b50eb8b85be5d4a378e02db947dad2f0, type: 3}
    - time: 10.5
      value: {fileID: 21300000, guid: b7ff3707f07644904993a23b26f92554, type: 3}
    - time: 10.583333
      value: {fileID: 21300000, guid: eba622f4069934386b916d9c00d475c3, type: 3}
    - time: 10.666667
      value: {fileID: 21300000, guid: 11f5170cdf5db43c99435e0028b61ebb, type: 3}
    - time: 10.75
      value: {fileID: 21300000, guid: a46f63413e6394e86aee5ebb99d0391d, type: 3}
    - time: 10.833333
      value: {fileID: 21300000, guid: d09665655547c4eb4879cee795417893, type: 3}
    - time: 10.916667
      value: {fileID: 21300000, guid: e177b6119e2f34786bb17a75e8f44bec, type: 3}
    - time: 11
      value: {fileID: 21300000, guid: b34c7b022508943d5bb139d5041b40af, type: 3}
    - time: 11.083333
      value: {fileID: 21300000, guid: f1e01253d5ba04e8d8f4cbb48b46d29a, type: 3}
    - time: 11.166667
      value: {fileID: 21300000, guid: b056aced62667479c8b867f0f4eb0380, type: 3}
    - time: 11.25
      value: {fileID: 21300000, guid: b089394ec1dec4310a2d4f5698e20161, type: 3}
    - time: 11.333333
      value: {fileID: 21300000, guid: 3cf89035c177c4c7e89747153a36d589, type: 3}
    - time: 11.416667
      value: {fileID: 21300000, guid: b69fc8f8664ca402e9d5081918237c24, type: 3}
    - time: 11.5
      value: {fileID: 21300000, guid: 5fdd2917ccd4b45fb9e8e9d74ead22db, type: 3}
    - time: 11.583333
      value: {fileID: 21300000, guid: bd88dac062ccc464fac4cb00f0dd5245, type: 3}
    - time: 11.666667
      value: {fileID: 21300000, guid: 5bc0c668229134ab9b07370705d7c3dc, type: 3}
    - time: 11.75
      value: {fileID: 21300000, guid: 80702380365604587a939a71ec89002f, type: 3}
    - time: 11.833333
      value: {fileID: 21300000, guid: 760d1208839564507ae3786399051a49, type: 3}
    - time: 11.916667
      value: {fileID: 21300000, guid: 41eb5a23964544b05a3ea311fd0caf81, type: 3}
    - time: 12
      value: {fileID: 21300000, guid: 59242241eca4d4e1aa544464ce79da19, type: 3}
    - time: 12.083333
      value: {fileID: 21300000, guid: b3ff3ffb63ebc4d0cb8cd0207e040e06, type: 3}
    - time: 12.166667
      value: {fileID: 21300000, guid: 7ffa1ca7066ae40289c3e76922792080, type: 3}
    - time: 12.25
      value: {fileID: 21300000, guid: cd59075a9339641e59ea9c18bdeec497, type: 3}
    - time: 12.333333
      value: {fileID: 21300000, guid: be619bd781d1d4697880794acab644dc, type: 3}
    - time: 12.416667
      value: {fileID: 21300000, guid: c48c65c90a2284665bbed1a0fade61f5, type: 3}
    - time: 12.5
      value: {fileID: 21300000, guid: 00db321d4f22b4ede9d3f805ed789690, type: 3}
    - time: 12.583333
      value: {fileID: 21300000, guid: f4e382b1ef6be46a6ac17a02c58227de, type: 3}
    attribute: m_Sprite
    path: 
    classID: 212
    script: {fileID: 0}
  m_SampleRate: 12
  m_WrapMode: 0
  m_Bounds:
    m_Center: {x: 0, y: 0, z: 0}
    m_Extent: {x: 0, y: 0, z: 0}
  m_ClipBindingConstant:
    genericBindings:
    - serializedVersion: 2
      path: 0
      attribute: 0
      script: {fileID: 0}
      typeID: 212
      customType: 23
      isPPtrCurve: 1
    pptrCurveMapping:
    - {fileID: 21300000, guid: f26e4ad865ad041e29624255eee94542, type: 3}
    - {fileID: 21300000, guid: 687549a0cc23a4c64bb2b48a084e41ef, type: 3}
    - {fileID: 21300000, guid: c7cf2663dfa2a4e748c84da7fbe1f1a7, type: 3}
    - {fileID: 21300000, guid: 4e45710a3f8714db59dd04a9427366ce, type: 3}
    - {fileID: 21300000, guid: 79f0d1f0990214b909c871c456e2a35f, type: 3}
    - {fileID: 21300000, guid: 59fd6fdb1adaf43d49ae7cfaca96a848, type: 3}
    - {fileID: 21300000, guid: 867251c3e568a4931a05a321db78260d, type: 3}
    - {fileID: 21300000, guid: 82f1111eaa5554331be176e07b4fd7f3, type: 3}
    - {fileID: 21300000, guid: ad900ce5432a34ba3a4dc9c890dc4f08, type: 3}
    - {fileID: 21300000, guid: 43662311cb1fe42659cc2b0e083f17e4, type: 3}
    - {fileID: 21300000, guid: 5e46d883137564913a8a93870a3891d1, type: 3}
    - {fileID: 21300000, guid: 13c7f30008d6e4b8aaf4b8c6a99fbf7a, type: 3}
    - {fileID: 21300000, guid: b6408d3b1d8ea4f4db519d367dd0477f, type: 3}
    - {fileID: 21300000, guid: 04e322cfc86074083a48234ac3042356, type: 3}
    - {fileID: 21300000, guid: 93df8a15442714e0db42447cd7bcc64e, type: 3}
    - {fileID: 21300000, guid: 9631b3c5dd7da4db19fed03581a6a736, type: 3}
    - {fileID: 21300000, guid: da6830a05db534360b0245e81d344e78, type: 3}
    - {fileID: 21300000, guid: 4b3839222b4764c04a62aa790d9d709b, type: 3}
    - {fileID: 21300000, guid: d55146cf02b1a445fb49ed7740b75bce, type: 3}
    - {fileID: 21300000, guid: ef4e68b7a79e94f61b933ed6babc5c9b, type: 3}
    - {fileID: 21300000, guid: 34b652761ae934e4fb7e304aabaaa393, type: 3}
    - {fileID: 21300000, guid: 11bd68d61138b45069628a087bc235e0, type: 3}
    - {fileID: 21300000, guid: d8063728eb1364ce6a7935a579c9f067, type: 3}
    - {fileID: 21300000, guid: b4db8d650067d444096b4215fa202986, type: 3}
    - {fileID: 21300000, guid: ce7ce80c0a3fc43099fa426f910fd8e2, type: 3}
    - {fileID: 21300000, guid: 66effb2b510a04af291348099f755b38, type: 3}
    - {fileID: 21300000, guid: 072af4c20657e409285c1d4d481cfbd1, type: 3}
    - {fileID: 21300000, guid: 2b435d2f730a5434f892492d537abaf5, type: 3}
    - {fileID: 21300000, guid: 7cfd34c752aae42e8bfc6264c99c9ea1, type: 3}
    - {fileID: 21300000, guid: c92a1c0b684d342d5b540007a0daadc7, type: 3}
    - {fileID: 21300000, guid: 72d7df999f8f441d9b4c14a93c7b60f0, type: 3}
    - {fileID: 21300000, guid: 65a664058a1c34f4493a282bee393eff, type: 3}
    - {fileID: 21300000, guid: ac39f2ee2ef434f9d9fe7ac8fa504036, type: 3}
    - {fileID: 21300000, guid: 15754e452b01d4d209a385a73e11476e, type: 3}
    - {fileID: 21300000, guid: 48c4b53bc9ee34ff0aff2bbeaa5c6cf5, type: 3}
    - {fileID: 21300000, guid: 1220237742f4448889b3cd6d2d4e1ce0, type: 3}
    - {fileID: 21300000, guid: 288582b02403a42569b676589527ffaf, type: 3}
    - {fileID: 21300000, guid: ceb6532b1ef054979839a3cc1ac6045b, type: 3}
    - {fileID: 21300000, guid: beb3a22c1d9874ded9a36a894355a2d2, type: 3}
    - {fileID: 21300000, guid: d180f06101d2147c0a1f0331dce4a684, type: 3}
    - {fileID: 21300000, guid: 4d42a92fa8e16441f9883ce08332f94c, type: 3}
    - {fileID: 21300000, guid: c64a215fab4504fefb5cce8e420d5dc7, type: 3}
    - {fileID: 21300000, guid: 950e4fa790784460184c0760e638e9a4, type: 3}
    - {fileID: 21300000, guid: 9e1f511ffdf1a4348b7cf28a69347ade, type: 3}
    - {fileID: 21300000, guid: 22da1da55d0fb4798bee584d3553bce6, type: 3}
    - {fileID: 21300000, guid: a4772a370cd294e94a0414805971669e, type: 3}
    - {fileID: 21300000, guid: 05cccc75e9086461f944790116230b9c, type: 3}
    - {fileID: 21300000, guid: 03e917b827c7044f68bc3f6c7b964b48, type: 3}
    - {fileID: 21300000, guid: fd2909b2c8a6b45159c8628a9119d8cb, type: 3}
    - {fileID: 21300000, guid: 45811f272c5f341b99e9306c7eb0aefc, type: 3}
    - {fileID: 21300000, guid: 6218f1e549a554c76bee2ab52c1f8b56, type: 3}
    - {fileID: 21300000, guid: 6b504d311c1724cbea18299cf5d3d63e, type: 3}
    - {fileID: 21300000, guid: 53f6a69e27c904be1860e5b71889f893, type: 3}
    - {fileID: 21300000, guid: 131dd3df342214f1eab1d3e6af27990c, type: 3}
    - {fileID: 21300000, guid: 555cea4958a664764802619b63e7d0e5, type: 3}
    - {fileID: 21300000, guid: 54c67b08cccf0461da9d542c963e9423, type: 3}
    - {fileID: 21300000, guid: ddc369e783ba44d7599697864d90d088, type: 3}
    - {fileID: 21300000, guid: 7118a1349321d46bdb3b187c322c38bc, type: 3}
    - {fileID: 21300000, guid: aed1be1c190f549c3bc03789181b4031, type: 3}
    - {fileID: 21300000, guid: 6848ebbd3f4d04062a228392bd7bd855, type: 3}
    - {fileID: 21300000, guid: 5fdd5f997ca994ea591bfef4a40c72aa, type: 3}
    - {fileID: 21300000, guid: a5ee74e19a93846e6ae4870960c49c1d, type: 3}
    - {fileID: 21300000, guid: 128348c41010942b68f874029ded0595, type: 3}
    - {fileID: 21300000, guid: 4b3545a629a9a44c682b469345259ebd, type: 3}
    - {fileID: 21300000, guid: eb91fe10533244d14b95c6091608d270, type: 3}
    - {fileID: 21300000, guid: d18d5deb88eda496e908cda8aeec822b, type: 3}
    - {fileID: 21300000, guid: a48f90c9749934c6d86ed43559eb996c, type: 3}
    - {fileID: 21300000, guid: c2030d82bc5fc498da18da6bc0cc2231, type: 3}
    - {fileID: 21300000, guid: e921ee523f60d4618bd90a7bb1efadb4, type: 3}
    - {fileID: 21300000, guid: 569ff3968394348f397d366d04db7ec3, type: 3}
    - {fileID: 21300000, guid: 95dbc70fc970e47459156051cc6f027b, type: 3}
    - {fileID: 21300000, guid: 2f3024ab999864446b162ff5c838711e, type: 3}
    - {fileID: 21300000, guid: 267505d1bdf2948e092ce0cd58be3866, type: 3}
    - {fileID: 21300000, guid: f7ff1d79bcbed4e27b8ecad1ea43925e, type: 3}
    - {fileID: 21300000, guid: 8d8920039848f4f81945e60313edaaae, type: 3}
    - {fileID: 21300000, guid: 97161e4feddbf481aa2b2e578f35fd0d, type: 3}
    - {fileID: 21300000, guid: c2d156b54963741f49313a79346d8eca, type: 3}
    - {fileID: 21300000, guid: 3642b6cbb61ae4679ad0d7801e984a0a, type: 3}
    - {fileID: 21300000, guid: b31dba0c91fe64275ba93b924d916ec8, type: 3}
    - {fileID: 21300000, guid: 93f5adaf5a4704011b2651a68d622a1c, type: 3}
    - {fileID: 21300000, guid: 7c05186a82a1345c18e7af4489435800, type: 3}
    - {fileID: 21300000, guid: eb98832f92d5b47549bc48c9e002efed, type: 3}
    - {fileID: 21300000, guid: 9063fb22305c34ea09417856a2ab408a, type: 3}
    - {fileID: 21300000, guid: 4eda98ad5d9b341a5807cbb15eb000d8, type: 3}
    - {fileID: 21300000, guid: 2f5145e62f53e45dab6a3099a0bf2491, type: 3}
    - {fileID: 21300000, guid: 473853bba560e41c48956d593d050006, type: 3}
    - {fileID: 21300000, guid: 0b24b158fbc2f4d51b092abe1bb35160, type: 3}
    - {fileID: 21300000, guid: 7e9e968f3f5424b629d45bb245d5d5c3, type: 3}
    - {fileID: 21300000, guid: afce881084a05471ab06b8e88c17f10d, type: 3}
    - {fileID: 21300000, guid: 1f5f536403bb34d3a8d33b00730c9128, type: 3}
    - {fileID: 21300000, guid: c543f4bb213c5458ea4fb49b702cf723, type: 3}
    - {fileID: 21300000, guid: a3ad1745ea6d046c58bc323bbaa40fd8, type: 3}
    - {fileID: 21300000, guid: a6a967a72ac07436986b7469a52781a6, type: 3}
    - {fileID: 21300000, guid: 5bef07d29729f45a8944150cfd20b995, type: 3}
    - {fileID: 21300000, guid: c57dee16bb9dd468fb3b2b194f25fe50, type: 3}
    - {fileID: 21300000, guid: 9578645eddc8042a7a19f28cd6e1c4ae, type: 3}
    - {fileID: 21300000, guid: a42c2f7d521b44601a83d1a848f8258e, type: 3}
    - {fileID: 21300000, guid: ec7ccb945948f4047b90ad0a11195ea0, type: 3}
    - {fileID: 21300000, guid: a8a7ca026fd384680bfc30e8f4f175d3, type: 3}
    - {fileID: 21300000, guid: 135b6da97b6e44e16bc50726dee49588, type: 3}
    - {fileID: 21300000, guid: 018d1978c4bf6481a8d54e8116c2e491, type: 3}
    - {fileID: 21300000, guid: a6aaa29705e7a4305a5d0b225005c46d, type: 3}
    - {fileID: 21300000, guid: c270c27af09dc4249ad0d3f0ea262f0b, type: 3}
    - {fileID: 21300000, guid: d278e2cac16014ddd9822f290951cad4, type: 3}
    - {fileID: 21300000, guid: 56d6525522eea4c9fb4489456a4a92dc, type: 3}
    - {fileID: 21300000, guid: 3b5171599eb824ffca2ca88549e1d6ca, type: 3}
    - {fileID: 21300000, guid: 554d8f974d01d4248adb3edb876d4a6b, type: 3}
    - {fileID: 21300000, guid: ac19d42a93bbe4f24867052611b8bddb, type: 3}
    - {fileID: 21300000, guid: 6a0e143bb4948491b83904aa311d1d74, type: 3}
    - {fileID: 21300000, guid: 07a477e009029408ea4187afddb7ae62, type: 3}
    - {fileID: 21300000, guid: 60d0719921e784a7b907382024a32bb3, type: 3}
    - {fileID: 21300000, guid: cb9ff1e3e901e49e3aa1bd9474bfa6d3, type: 3}
    - {fileID: 21300000, guid: 0c3379919acf34ccda26a686afeaa9b4, type: 3}
    - {fileID: 21300000, guid: 46dc1c9fd516b440aaa179820ee3b003, type: 3}
    - {fileID: 21300000, guid: 6d5ebf273284642679b511fe87b69107, type: 3}
    - {fileID: 21300000, guid: 351bc06e56e554e72b1d074c5980627e, type: 3}
    - {fileID: 21300000, guid: c12b8df7f4f0f4f75ab9f86c4bb47072, type: 3}
    - {fileID: 21300000, guid: ce1bba6aff6ff47c1af360791d939fd2, type: 3}
    - {fileID: 21300000, guid: 9695f9ea6efca4f0b89ecaf22612315f, type: 3}
    - {fileID: 21300000, guid: 5a50b81399836415ba5dbc27c4350743, type: 3}
    - {fileID: 21300000, guid: 32009355ceb044128b64450245f1652a, type: 3}
    - {fileID: 21300000, guid: 162c708d39f46455c9421d287fb63526, type: 3}
    - {fileID: 21300000, guid: 4d96b59f5f04e43288f7987b003c3593, type: 3}
    - {fileID: 21300000, guid: c763610d729d347acb5dfa5cfc2e83ab, type: 3}
    - {fileID: 21300000, guid: 0609818ea07e247ddaf8e8042c2db0ed, type: 3}
    - {fileID: 21300000, guid: b50eb8b85be5d4a378e02db947dad2f0, type: 3}
    - {fileID: 21300000, guid: b7ff3707f07644904993a23b26f92554, type: 3}
    - {fileID: 21300000, guid: eba622f4069934386b916d9c00d475c3, type: 3}
    - {fileID: 21300000, guid: 11f5170cdf5db43c99435e0028b61ebb, type: 3}
    - {fileID: 21300000, guid: a46f63413e6394e86aee5ebb99d0391d, type: 3}
    - {fileID: 21300000, guid: d09665655547c4eb4879cee795417893, type: 3}
    - {fileID: 21300000, guid: e177b6119e2f34786bb17a75e8f44bec, type: 3}
    - {fileID: 21300000, guid: b34c7b022508943d5bb139d5041b40af, type: 3}
    - {fileID: 21300000, guid: f1e01253d5ba04e8d8f4cbb48b46d29a, type: 3}
    - {fileID: 21300000, guid: b056aced62667479c8b867f0f4eb0380, type: 3}
    - {fileID: 21300000, guid: b089394ec1dec4310a2d4f5698e20161, type: 3}
    - {fileID: 21300000, guid: 3cf89035c177c4c7e89747153a36d589, type: 3}
    - {fileID: 21300000, guid: b69fc8f8664ca402e9d5081918237c24, type: 3}
    - {fileID: 21300000, guid: 5fdd2917ccd4b45fb9e8e9d74ead22db, type: 3}
    - {fileID: 21300000, guid: bd88dac062ccc464fac4cb00f0dd5245, type: 3}
    - {fileID: 21300000, guid: 5bc0c668229134ab9b07370705d7c3dc, type: 3}
    - {fileID: 21300000, guid: 80702380365604587a939a71ec89002f, type: 3}
    - {fileID: 21300000, guid: 760d1208839564507ae3786399051a49, type: 3}
    - {fileID: 21300000, guid: 41eb5a23964544b05a3ea311fd0caf81, type: 3}
    - {fileID: 21300000, guid: 59242241eca4d4e1aa544464ce79da19, type: 3}
    - {fileID: 21300000, guid: b3ff3ffb63ebc4d0cb8cd0207e040e06, type: 3}
    - {fileID: 21300000, guid: 7ffa1ca7066ae40289c3e76922792080, type: 3}
    - {fileID: 21300000, guid: cd59075a9339641e59ea9c18bdeec497, type: 3}
    - {fileID: 21300000, guid: be619bd781d1d4697880794acab644dc, type: 3}
    - {fileID: 21300000, guid: c48c65c90a2284665bbed1a0fade61f5, type: 3}
    - {fileID: 21300000, guid: 00db321d4f22b4ede9d3f805ed789690, type: 3}
    - {fileID: 21300000, guid: f4e382b1ef6be46a6ac17a02c58227de, type: 3}
  m_AnimationClipSettings:
    serializedVersion: 2
    m_AdditiveReferencePoseClip: {fileID: 0}
    m_AdditiveReferencePoseTime: 0
    m_StartTime: 0
    m_StopTime: 12.666667
    m_OrientationOffsetY: 0
    m_Level: 0
    m_CycleOffset: 0
    m_HasAdditiveReferencePose: 0
    m_LoopTime: 0
    m_LoopBlend: 0
    m_LoopBlendOrientation: 0
    m_LoopBlendPositionY: 0
    m_LoopBlendPositionXZ: 0
    m_KeepOriginalOrientation: 0
    m_KeepOriginalPositionY: 1
    m_KeepOriginalPositionXZ: 0
    m_HeightFromFeet: 0
    m_Mirror: 0
  m_EditorCurves: []
  m_EulerEditorCurves: []
  m_HasGenericRootTransform: 0
  m_HasMotionFloatCurves: 0
  m_GenerateMotionCurves: 0
  m_Events: []
